…
``` r
symptoms_sample_prev %>%
  left_join(dsm_mdd_symptoms_labels, by=c('symptom'='ref')) %>%
  select(Cohorts=cohorts, Ref=symptom, Symptom=h, Cases=Nca, Controls=Nco, `Sample prevalence`=samp_prev)
```

    ## # A tibble: 38 × 6
    ##    Cohorts  Ref   Symptom  Cases Controls `Sample prevalence`
    ##    <chr>    <chr> <chr>    <dbl>    <dbl>               <dbl>
    ##  1 AGDS_PGC MDD1  Mood     25820     1623               0.941
    ##  2 AGDS_PGC MDD2  Interest 24488     2421               0.910
    ##  3 AGDS_PGC MDD3a Weight⇊   9007    13960               0.392
    ##  4 AGDS_PGC MDD3b Weight⇈   7510    14436               0.342
    ##  5 AGDS_PGC MDD4a Sleep⇊   19368     6310               0.754
    ##  6 AGDS_PGC MDD4b Sleep⇈   10559    13011               0.448
    ##  7 AGDS_PGC MDD5a Motor⇈   10686    12570               0.459
    ##  8 AGDS_PGC MDD5b Motor⇊   12511    11838               0.514
    ##  9 AGDS_PGC MDD6  Fatigue  23523     2179               0.915
    ## 10 AGDS_PGC MDD7  Guilt    21633     3727               0.853
    ## # … with 28 more rows
…
